[gd_scene load_steps=4 format=2]

[ext_resource path="res://fonts/PoetsenOne-Regular.ttf" type="DynamicFontData" id=1]
[ext_resource path="res://scripts/story.gd" type="Script" id=2]

[sub_resource type="DynamicFont" id=1]
size = 32
font_data = ExtResource( 1 )

[node name="Control" type="Control"]
anchor_right = 1.0
anchor_bottom = 1.0
script = ExtResource( 2 )

[node name="ColorRect" type="ColorRect" parent="."]
anchor_right = 1.0
anchor_bottom = 1.0
margin_left = -2.0
margin_top = -1.0
margin_right = -2.0
margin_bottom = -1.0
color = Color( 0.00784314, 0.270588, 0.372549, 1 )

[node name="Label" type="Label" parent="."]
anchor_left = 0.5
anchor_top = 0.5
anchor_right = 0.5
anchor_bottom = 0.5
margin_left = -512.0
margin_top = -40.5
margin_right = 512.0
margin_bottom = 40.5
rect_min_size = Vector2( 0, 20 )
custom_fonts/font = SubResource( 1 )
text = "
"
align = 1

[node name="Button" type="Button" parent="."]
anchor_left = 1.0
anchor_top = 1.0
anchor_right = 1.0
anchor_bottom = 1.0
margin_left = -80.0
margin_top = -40.0
rect_min_size = Vector2( 80, 40 )
text = "Skip"

[connection signal="pressed" from="Button" to="." method="_on_Button_pressed"]
